<?xml version="1.0" encoding="utf-8"?>
<!-- Generator: Adobe Illustrator 19.1.0, SVG Export Plug-In . SVG Version: 6.00 Build 0)  -->
<!DOCTYPE svg PUBLIC "-//W3C//DTD SVG 1.1//EN" "http://www.w3.org/Graphics/SVG/1.1/DTD/svg11.dtd">
<svg version="1.1" id="Layer_1" xmlns="http://www.w3.org/2000/svg" xmlns:xlink="http://www.w3.org/1999/xlink" x="0px" y="0px"
	 width="38.2px" height="36.5px" viewBox="0 0 38.2 36.5" style="enable-background:new 0 0 38.2 36.5;" xml:space="preserve">
<line style="fill:none;stroke:#F8F8F8;stroke-width:2.5;stroke-linecap:round;stroke-miterlimit:10;" x1="4.2" y1="11.3" x2="34" y2="11.3"/>
<line style="fill:none;stroke:#F8F8F8;stroke-width:2.5;stroke-linecap:round;stroke-miterlimit:10;" x1="4.2" y1="4.3" x2="34" y2="4.3"/>
<line style="fill:none;stroke:#F8F8F8;stroke-width:2.5;stroke-linecap:round;stroke-miterlimit:10;" x1="4.2" y1="18.3" x2="34" y2="18.3"/>
<line style="fill:none;stroke:#F8F8F8;stroke-width:2.5;stroke-linecap:round;stroke-miterlimit:10;" x1="4.2" y1="25.3" x2="34" y2="25.3"/>
<line style="fill:none;stroke:#F8F8F8;stroke-width:2.5;stroke-linecap:round;stroke-miterlimit:10;" x1="4.2" y1="32.3" x2="24" y2="32.3"/>
</svg>
